Case Study2 - Final
…
# visual data fram of the model
tm = tidy(model)
tm

## # A tibble: 46 x 5
##    term                              estimate  std.error statistic p.value
##    <chr>                                <dbl>      <dbl>     <dbl>   <dbl>
##  1 (Intercept)                     -9.56      650.         -0.0147 9.88e-1
##  2 Age                             -0.0373      0.0228     -1.63   1.03e-1
##  3 BusinessTravelTravel_Frequent~   1.90        0.630       3.02   2.51e-3
##  4 BusinessTravelTravel_Rarely      1.27        0.567       2.23   2.55e-2
##  5 DailyRate                       -0.0000263   0.000378   -0.0695 9.45e-1
##  6 DepartmentResearch & Developm~  12.9       650.          0.0199 9.84e-1
##  7 DepartmentSales                 11.9       650.          0.0183 9.85e-1
##  8 DistanceFromHome                 0.0634      0.0186      3.40   6.62e-4
##  9 Education                       -0.00638     0.149      -0.0429 9.66e-1
## 10 EducationFieldLife Sciences     -1.86        1.38       -1.35   1.77e-1
## # ... with 36 more rows
…
